[api-updater (non-obsolete-error-filter)] 9/06/2021 9:02:31 AM : Starting C:/Program Files/Unity/Hub/Editor/2020.3.8f1/Editor/Data/Tools/ScriptUpdater/APIUpdater.NonObsoleteApiUpdaterDetector.exe
[api-updater (non-obsolete-error-filter)] Exception caught while loading types from C:\Users\dombo\Documents\SAE\Studio 1 (GPG210)\Week 2\Library\ScriptAssemblies\Unity.TextMeshPro.Editor.dll (some types may not be loaded)
	Exception of type 'System.Reflection.ReflectionTypeLoadException' was thrown.
	  at (wrapper managed-to-native) System.Reflection.Assembly.GetTypes(System.Reflection.Assembly,bool)
  at System.Reflection.Assembly.GetTypes () [0x00000] in <695d1cc93cca45069c528c15c9fdd749>:0 
  at APIUpdater.NonObsoleteApiUpdaterDetector.ExtraInfoParser+<LoadTypesWithMovedFromAttributeAsync>d__3.MoveNext () [0x000c8] in <68bff7873e0e4aa69a14dfc30bebbe3e>:0 
	Could not load file or assembly 'UnityEditor.CoreModule, Version=0.0.0.0, Culture=neutral, PublicKeyToken=null' or one of its dependencies.

[api-updater (non-obsolete-error-filter)] 
----------------------------------
jit/startup time      : 98.5188ms
moved types parse time: 58ms
candidates parse time : 1ms
C# parse time         : 250ms
candidates check time : 39ms
console write time    : 0ms

[api-updater (non-obsolete-error-filter)] 12/06/2021 12:07:14 AM : Starting C:/Program Files/Unity/Hub/Editor/2020.3.8f1/Editor/Data/Tools/ScriptUpdater/APIUpdater.NonObsoleteApiUpdaterDetector.exe
[api-updater (non-obsolete-error-filter)] 
----------------------------------
jit/startup time      : 870.4715ms
moved types parse time: 75ms
candidates parse time : 1ms
C# parse time         : 328ms
candidates check time : 38ms
console write time    : 1ms

[api-updater (non-obsolete-error-filter)] 12/06/2021 7:27:57 PM : Starting C:/Program Files/Unity/Hub/Editor/2020.3.8f1/Editor/Data/Tools/ScriptUpdater/APIUpdater.NonObsoleteApiUpdaterDetector.exe
[api-updater (non-obsolete-error-filter)] 
----------------------------------
jit/startup time      : 107.9375ms
moved types parse time: 58ms
candidates parse time : 1ms
C# parse time         : 215ms
candidates check time : 38ms
console write time    : 0ms

